{
    "fluentMethods": true,
    "clientRootFolder": "",
    "relationships": [
        {
            "relationshipName": "game",
            "otherEntityName": "game",
            "relationshipType": "many-to-one",
            "otherEntityField": "id"
        }
    ],
    "fields": [
        {
            "fieldName": "gameId",
            "fieldType": "Long",
            "fieldValidateRules": [
                "required"
            ]
        },
        {
            "fieldName": "cronExp",
            "fieldType": "String",
            "fieldValidateRules": [
                "required"
            ]
        }
    ],
    "changelogDate": "20191005095104",
    "dto": "no",
    "searchEngine": "elasticsearch",
    "service": "serviceImpl",
    "entityTableName": "cron_scheduler",
    "databaseType": "sql",
    "jpaMetamodelFiltering": false,
    "pagination": "no"
}
