{
    "name": "GameResult",
    "fields": [
        {
            "fieldName": "gameTime",
            "fieldType": "Instant",
            "fieldValidateRules": [
                "required"
            ]
        },
        {
            "fieldName": "winnersNos",
            "fieldType": "String"
        },
        {
            "fieldName": "remarks",
            "fieldType": "String"
        }
    ],
    "relationships": [
        {
            "relationshipType": "many-to-one",
            "otherEntityName": "game",
            "otherEntityRelationshipName": "gameResult",
            "relationshipName": "game",
            "otherEntityField": "gameName"
        },
        {
            "relationshipType": "many-to-one",
            "otherEntityName": "coin",
            "otherEntityRelationshipName": "gameResult",
            "relationshipName": "coin",
            "otherEntityField": "gameName"
        }
    ],
    "changelogDate": "20190831081453",
    "entityTableName": "game_result",
    "dto": "no",
    "pagination": "pagination",
    "service": "serviceImpl",
    "jpaMetamodelFiltering": true,
    "fluentMethods": true,
    "clientRootFolder": "",
    "applications": "*"
}