{
    "fluentMethods": true,
    "clientRootFolder": "",
    "relationships": [],
    "fields": [],
    "changelogDate": "20190901152336",
    "dto": "no",
    "searchEngine": "elasticsearch",
    "service": "no",
    "entityTableName": "play_game",
    "databaseType": "sql",
    "jpaMetamodelFiltering": false,
    "pagination": "no"
}
