id;game_name;description;start_time;end_time;jhi_interval;number_range_from;number_range_to;is_enable
1;mobile Fish;Home Loan Account Table Computer;2019-10-13T03:50:41;2019-10-12T18:13:00;86617;33370;60111;false
2;deposit Tasty Metal Bacon Implementation;Chips;2019-10-13T00:50:13;2019-10-12T14:25:09;30424;61165;52475;false
3;Home Namibia;Steel zero administration;2019-10-12T20:26:46;2019-10-12T23:39:08;45606;9060;78517;true
4;syndicate;Mississippi Refined Rubber Chicken Table;2019-10-13T03:40:39;2019-10-13T04:55:13;94888;94220;96563;true
5;envisioneer Music Public-key;infomediaries;2019-10-13T02:18:35;2019-10-12T14:35:56;49517;83319;3438;false
6;incentivize Tuna copy;Costa Rica Mayotte;2019-10-13T00:48:08;2019-10-13T04:29:14;96958;84228;77513;false
7;e-enable Communications capacitor;Awesome;2019-10-13T00:32:06;2019-10-12T16:44:19;4522;96117;32533;true
8;compress South Georgia and the South Sandwich Islands;compelling mission-critical;2019-10-12T16:12:51;2019-10-12T22:36:53;14092;29627;80219;false
9;Industrial;index orange;2019-10-13T05:06:22;2019-10-13T04:54:03;81546;19884;70685;true
10;1080p Checking Account Identity;Frozen IB;2019-10-12T14:16:47;2019-10-12T18:27:07;33089;9541;6355;false
