id;sms_time_slots;coins;expiry_date;description;mobile_no
1;Lempira;pixel withdrawal;2019-10-12T07:56:45;Junction Frozen;synthesizing hard drive Robust
2;Avon;system Small;2019-10-12T18:41:41;red;withdrawal knowledge base Buckinghamshire
3;Concrete Investment Account Saint Lucia;User-centric;2019-10-13T03:23:28;neutral Salad;Auto Loan Account modular Refined
4;digital maroon;EXE projection Fresh;2019-10-12T20:41:15;Direct;Profit-focused
5;Jewelery cutting-edge;Games;2019-10-12T16:58:51;supply-chains magenta;encompassing
6;Directives;sky blue;2019-10-12T15:50:40;facilitate Tasty Concrete Chips Exclusive;Buckinghamshire capability zero tolerance
7;mission-critical;Berkshire Small Plastic Pants Investor;2019-10-12T23:29:21;Granite Berkshire Designer;Credit Card Account
8;navigate;Re-contextualized;2019-10-12T09:57:49;Point Orchestrator;Solomon Islands Licensed
9;Gloves Bedfordshire Argentine Peso;Kentucky Algerian Dinar Clothing;2019-10-12T16:56:55;Future-proofed deposit Sausages;disintermediate Cambridgeshire hacking
10;bricks-and-clicks Concrete Global;Fiji Dollar Profound Bacon;2019-10-12T05:40:01;Borders content-based;Tasty Customer Human
